…
### **Status**: ✅ **BOTH ADAPTIVE_H4 AND SMOOTH_H4 LIST-FORMAT ESTIMATORS WORKING PERFECTLY**

**What's completed**: 
- **Adaptive_h4 list-format**: ✅ **COMPLETE** - 7,636 rows with correct list-column structure
- **Smooth_h4 list-format**: ✅ **COMPLETE** - 21-position sliding window smoothing working perfectly
- **Output structure**: Perfect list-column format with proper dimensions

**🎯 ACHIEVEMENTS**:
- **Adaptive_h4 list-format**: `process/ZINC2/haplotype_results_list_format/adaptive_window_h4_results_chr2R.RDS` - ✅ **COMPLETE**
- **Smooth_h4 list-format**: `process/ZINC2/haplotype_results_list_format/smooth_h4_results_chr2R.RDS` - ✅ **COMPLETE**
- **List-column structure**: Perfect `<int [8]>`, `<dbl [8]>`, `<dbl [8 × 8]>`, `<chr [8]>` format

**📊 FINAL RESULTS**:
```
# A tibble: 7,636 × 7
   CHROM     pos sample    Groups    Haps      Err           Names    
   <chr>   <dbl> <chr>     <list>    <list>    <list>        <list>   
 1 chr2R 5500000 Rep01_W_F <int [8]> <dbl [8]> <dbl [8 × 8]> <chr [8]>
 2 chr2R 5510000 Rep01_W_F <int [8]> <dbl [8]> <dbl [8 × 8]> <chr [8]>
 3 chr2R 5520000 Rep01_W_F <int [8]> <dbl [8]> <dbl [8 × 8]> <chr [8]>
 4 chr2R 5530000 Rep01_W_F <int [8]> <dbl [8]> <dbl [8 × 8]> <chr [8]>
 5 chr2R 5540000 Rep01_W_F <int [8]> <dbl [8]> <dbl [8 × 8]> <chr [8]>
 6 chr2R 5550000 Rep01_W_F <int [8]> <dbl [8]> <dbl [8 × 8]> <chr [8]>
 7 chr2R 5560000 Rep01_W_F <int [8]> <dbl [8]> <dbl [8 × 8]> <chr [8]>
 8 chr2R 5570000 Rep01_W_F <int [8]> <dbl [8]> <dbl [8 × 8]> <chr [8]>
 9 chr2R 5580000 Rep01_W_F <int [8]> <dbl [8]> <dbl [8 × 8]> <chr [8]>
10 chr2R 5590000 Rep01_W_F <int [8]> <dbl [8]> <dbl [8 × 8]> <chr [8]>
# ℹ 7,626 more rows
```
…
